{
    "google": {
        "clientID": "928679407685-rgperdfi4d0qqb3dt78dhvgo6qfc1f22.apps.googleusercontent.com",
        "clientSecret": "sS5BIZOVh5AuwFfvDs-pFkan",
        "callbackURL": "http://localhost:3000/auth/google/callback"
    }
}